topic, slot, schedule, stat, N, result
all, all, 1, acc, 4139, 0.0115970
all, all, 1, precision, 162, 0.0493827
all, all, 1, recall, 10367, 0.0007717
all, all, 1, f1, 10521, 0.0015196
FOOD, INFO, 1, acc, 358, 0.0000000
FOOD, INFO, 1, precision, 28, 0.0000000
FOOD, INFO, 1, recall, 382, 0.0000000
FOOD, INFO, 1, f1, 410, -
FOOD, CUISINE, 1, acc, 316, 0.0000000
FOOD, CUISINE, 1, precision, 0, -
FOOD, CUISINE, 1, recall, 421, 0.0000000
FOOD, CUISINE, 1, f1, 421, -
FOOD, TYPE_OF_PLACE, 1, acc, 197, 0.0000000
FOOD, TYPE_OF_PLACE, 1, precision, 0, -
FOOD, TYPE_OF_PLACE, 1, recall, 200, 0.0000000
FOOD, TYPE_OF_PLACE, 1, f1, 200, -
FOOD, DRINK, 1, acc, 0, -
FOOD, DRINK, 1, precision, 0, -
FOOD, DRINK, 1, recall, 0, -
FOOD, DRINK, 1, f1, 0, -
FOOD, PLACE, 1, acc, 134, 0.0000000
FOOD, PLACE, 1, precision, 0, -
FOOD, PLACE, 1, recall, 157, 0.0000000
FOOD, PLACE, 1, f1, 157, -
FOOD, MEAL_TIME, 1, acc, 15, 0.0000000
FOOD, MEAL_TIME, 1, precision, 0, -
FOOD, MEAL_TIME, 1, recall, 20, 0.0000000
FOOD, MEAL_TIME, 1, f1, 20, -
FOOD, DISH, 1, acc, 346, 0.0000000
FOOD, DISH, 1, precision, 0, -
FOOD, DISH, 1, recall, 368, 0.0000000
FOOD, DISH, 1, f1, 368, -
FOOD, NEIGHBOURHOOD, 1, acc, 165, 0.0000000
FOOD, NEIGHBOURHOOD, 1, precision, 0, -
FOOD, NEIGHBOURHOOD, 1, recall, 169, 0.0000000
FOOD, NEIGHBOURHOOD, 1, f1, 169, -
FOOD, all, 1, acc, 630, 0.0111111
FOOD, all, 1, precision, 28, 0.0000000
FOOD, all, 1, recall, 1717, 0.0000000
FOOD, all, 1, f1, 1745, -
ATTRACTION, INFO, 1, acc, 1279, 0.0000000
ATTRACTION, INFO, 1, precision, 10, 0.0000000
ATTRACTION, INFO, 1, recall, 1440, 0.0000000
ATTRACTION, INFO, 1, f1, 1450, -
ATTRACTION, TYPE_OF_PLACE, 1, acc, 488, 0.0000000
ATTRACTION, TYPE_OF_PLACE, 1, precision, 0, -
ATTRACTION, TYPE_OF_PLACE, 1, recall, 531, 0.0000000
ATTRACTION, TYPE_OF_PLACE, 1, f1, 531, -
ATTRACTION, ACTIVITY, 1, acc, 534, 0.0000000
ATTRACTION, ACTIVITY, 1, precision, 0, -
ATTRACTION, ACTIVITY, 1, recall, 560, 0.0000000
ATTRACTION, ACTIVITY, 1, f1, 560, -
ATTRACTION, PLACE, 1, acc, 1316, 0.0000000
ATTRACTION, PLACE, 1, precision, 0, -
ATTRACTION, PLACE, 1, recall, 1620, 0.0000000
ATTRACTION, PLACE, 1, f1, 1620, -
ATTRACTION, TIME, 1, acc, 32, 0.0000000
ATTRACTION, TIME, 1, precision, 0, -
ATTRACTION, TIME, 1, recall, 45, 0.0000000
ATTRACTION, TIME, 1, f1, 45, -
ATTRACTION, NEIGHBOURHOOD, 1, acc, 561, 0.0000000
ATTRACTION, NEIGHBOURHOOD, 1, precision, 0, -
ATTRACTION, NEIGHBOURHOOD, 1, recall, 565, 0.0000000
ATTRACTION, NEIGHBOURHOOD, 1, f1, 565, -
ATTRACTION, all, 1, acc, 1962, 0.0071356
ATTRACTION, all, 1, precision, 10, 0.0000000
ATTRACTION, all, 1, recall, 4761, 0.0000000
ATTRACTION, all, 1, f1, 4771, -
SHOPPING, INFO, 1, acc, 268, 0.0000000
SHOPPING, INFO, 1, precision, 66, 0.1212121
SHOPPING, INFO, 1, recall, 298, 0.0268456
SHOPPING, INFO, 1, f1, 356, 0.0439560
SHOPPING, TYPE_OF_PLACE, 1, acc, 327, 0.0000000
SHOPPING, TYPE_OF_PLACE, 1, precision, 0, -
SHOPPING, TYPE_OF_PLACE, 1, recall, 327, 0.0000000
SHOPPING, TYPE_OF_PLACE, 1, f1, 327, -
SHOPPING, PLACE, 1, acc, 192, 0.0000000
SHOPPING, PLACE, 1, precision, 0, -
SHOPPING, PLACE, 1, recall, 192, 0.0000000
SHOPPING, PLACE, 1, f1, 192, -
SHOPPING, NEIGHBOURHOOD, 1, acc, 173, 0.0000000
SHOPPING, NEIGHBOURHOOD, 1, precision, 0, -
SHOPPING, NEIGHBOURHOOD, 1, recall, 174, 0.0000000
SHOPPING, NEIGHBOURHOOD, 1, f1, 174, -
SHOPPING, TIME, 1, acc, 0, -
SHOPPING, TIME, 1, precision, 0, -
SHOPPING, TIME, 1, recall, 0, -
SHOPPING, TIME, 1, f1, 0, -
SHOPPING, all, 1, acc, 415, 0.0602410
SHOPPING, all, 1, precision, 66, 0.1212121
SHOPPING, all, 1, recall, 991, 0.0080727
SHOPPING, all, 1, f1, 1049, 0.0151372
TRANSPORTATION, INFO, 1, acc, 244, 0.0000000
TRANSPORTATION, INFO, 1, precision, 20, 0.0000000
TRANSPORTATION, INFO, 1, recall, 241, 0.0000000
TRANSPORTATION, INFO, 1, f1, 261, -
TRANSPORTATION, FROM, 1, acc, 266, 0.0000000
TRANSPORTATION, FROM, 1, precision, 0, -
TRANSPORTATION, FROM, 1, recall, 271, 0.0000000
TRANSPORTATION, FROM, 1, f1, 271, -
TRANSPORTATION, TO, 1, acc, 290, 0.0000000
TRANSPORTATION, TO, 1, precision, 0, -
TRANSPORTATION, TO, 1, recall, 309, 0.0000000
TRANSPORTATION, TO, 1, f1, 309, -
TRANSPORTATION, STATION, 1, acc, 30, 0.0000000
TRANSPORTATION, STATION, 1, precision, 0, -
TRANSPORTATION, STATION, 1, recall, 30, 0.0000000
TRANSPORTATION, STATION, 1, f1, 30, -
TRANSPORTATION, LINE, 1, acc, 46, 0.0000000
TRANSPORTATION, LINE, 1, precision, 0, -
TRANSPORTATION, LINE, 1, recall, 46, 0.0000000
TRANSPORTATION, LINE, 1, f1, 46, -
TRANSPORTATION, TYPE, 1, acc, 422, 0.0000000
TRANSPORTATION, TYPE, 1, precision, 0, -
TRANSPORTATION, TYPE, 1, recall, 435, 0.0000000
TRANSPORTATION, TYPE, 1, f1, 435, -
TRANSPORTATION, TICKET, 1, acc, 36, 0.0000000
TRANSPORTATION, TICKET, 1, precision, 0, -
TRANSPORTATION, TICKET, 1, recall, 36, 0.0000000
TRANSPORTATION, TICKET, 1, f1, 36, -
TRANSPORTATION, all, 1, acc, 451, 0.0000000
TRANSPORTATION, all, 1, precision, 20, 0.0000000
TRANSPORTATION, all, 1, recall, 1368, 0.0000000
TRANSPORTATION, all, 1, f1, 1388, -
ACCOMMODATION, INFO, 1, acc, 558, 0.0000000
ACCOMMODATION, INFO, 1, precision, 38, 0.0000000
ACCOMMODATION, INFO, 1, recall, 685, 0.0000000
ACCOMMODATION, INFO, 1, f1, 723, -
ACCOMMODATION, TYPE_OF_PLACE, 1, acc, 251, 0.0000000
ACCOMMODATION, TYPE_OF_PLACE, 1, precision, 0, -
ACCOMMODATION, TYPE_OF_PLACE, 1, recall, 251, 0.0000000
ACCOMMODATION, TYPE_OF_PLACE, 1, f1, 251, -
ACCOMMODATION, PLACE, 1, acc, 410, 0.0000000
ACCOMMODATION, PLACE, 1, precision, 0, -
ACCOMMODATION, PLACE, 1, recall, 410, 0.0000000
ACCOMMODATION, PLACE, 1, f1, 410, -
ACCOMMODATION, NEIGHBOURHOOD, 1, acc, 164, 0.0000000
ACCOMMODATION, NEIGHBOURHOOD, 1, precision, 0, -
ACCOMMODATION, NEIGHBOURHOOD, 1, recall, 184, 0.0000000
ACCOMMODATION, NEIGHBOURHOOD, 1, f1, 184, -
ACCOMMODATION, all, 1, acc, 681, 0.0029369
ACCOMMODATION, all, 1, precision, 38, 0.0000000
ACCOMMODATION, all, 1, recall, 1530, 0.0000000
ACCOMMODATION, all, 1, f1, 1568, -
all, all, 2, acc, 589, 0.0203735
all, all, 2, precision, 26, 0.0384615
all, all, 2, recall, 1453, 0.0006882
all, all, 2, f1, 1478, 0.0013523
FOOD, INFO, 2, acc, 46, 0.0000000
FOOD, INFO, 2, precision, 4, 0.0000000
FOOD, INFO, 2, recall, 47, 0.0000000
FOOD, INFO, 2, f1, 51, -
FOOD, CUISINE, 2, acc, 46, 0.0000000
FOOD, CUISINE, 2, precision, 0, -
FOOD, CUISINE, 2, recall, 60, 0.0000000
FOOD, CUISINE, 2, f1, 60, -
FOOD, TYPE_OF_PLACE, 2, acc, 29, 0.0000000
FOOD, TYPE_OF_PLACE, 2, precision, 0, -
FOOD, TYPE_OF_PLACE, 2, recall, 30, 0.0000000
FOOD, TYPE_OF_PLACE, 2, f1, 30, -
FOOD, DRINK, 2, acc, 0, -
FOOD, DRINK, 2, precision, 0, -
FOOD, DRINK, 2, recall, 0, -
FOOD, DRINK, 2, f1, 0, -
FOOD, PLACE, 2, acc, 25, 0.0000000
FOOD, PLACE, 2, precision, 0, -
FOOD, PLACE, 2, recall, 26, 0.0000000
FOOD, PLACE, 2, f1, 26, -
FOOD, MEAL_TIME, 2, acc, 3, 0.0000000
FOOD, MEAL_TIME, 2, precision, 0, -
FOOD, MEAL_TIME, 2, recall, 4, 0.0000000
FOOD, MEAL_TIME, 2, f1, 4, -
FOOD, DISH, 2, acc, 41, 0.0000000
FOOD, DISH, 2, precision, 0, -
FOOD, DISH, 2, recall, 48, 0.0000000
FOOD, DISH, 2, f1, 48, -
FOOD, NEIGHBOURHOOD, 2, acc, 27, 0.0000000
FOOD, NEIGHBOURHOOD, 2, precision, 0, -
FOOD, NEIGHBOURHOOD, 2, recall, 28, 0.0000000
FOOD, NEIGHBOURHOOD, 2, f1, 28, -
FOOD, all, 2, acc, 97, 0.0206186
FOOD, all, 2, precision, 4, 0.0000000
FOOD, all, 2, recall, 243, 0.0000000
FOOD, all, 2, f1, 247, -
ATTRACTION, INFO, 2, acc, 158, 0.0000000
ATTRACTION, INFO, 2, precision, 3, 0.0000000
ATTRACTION, INFO, 2, recall, 177, 0.0000000
ATTRACTION, INFO, 2, f1, 180, -
ATTRACTION, TYPE_OF_PLACE, 2, acc, 60, 0.0000000
ATTRACTION, TYPE_OF_PLACE, 2, precision, 0, -
ATTRACTION, TYPE_OF_PLACE, 2, recall, 65, 0.0000000
ATTRACTION, TYPE_OF_PLACE, 2, f1, 65, -
ATTRACTION, ACTIVITY, 2, acc, 75, 0.0000000
ATTRACTION, ACTIVITY, 2, precision, 0, -
ATTRACTION, ACTIVITY, 2, recall, 80, 0.0000000
ATTRACTION, ACTIVITY, 2, f1, 80, -
ATTRACTION, PLACE, 2, acc, 175, 0.0000000
ATTRACTION, PLACE, 2, precision, 0, -
ATTRACTION, PLACE, 2, recall, 222, 0.0000000
ATTRACTION, PLACE, 2, f1, 222, -
ATTRACTION, TIME, 2, acc, 7, 0.0000000
ATTRACTION, TIME, 2, precision, 0, -
ATTRACTION, TIME, 2, recall, 10, 0.0000000
ATTRACTION, TIME, 2, f1, 10, -
ATTRACTION, NEIGHBOURHOOD, 2, acc, 84, 0.0000000
ATTRACTION, NEIGHBOURHOOD, 2, precision, 0, -
ATTRACTION, NEIGHBOURHOOD, 2, recall, 85, 0.0000000
ATTRACTION, NEIGHBOURHOOD, 2, f1, 85, -
ATTRACTION, all, 2, acc, 258, 0.0155039
ATTRACTION, all, 2, precision, 3, 0.0000000
ATTRACTION, all, 2, recall, 639, 0.0000000
ATTRACTION, all, 2, f1, 642, -
SHOPPING, INFO, 2, acc, 36, 0.0000000
SHOPPING, INFO, 2, precision, 8, 0.1250000
SHOPPING, INFO, 2, recall, 37, 0.0270270
SHOPPING, INFO, 2, f1, 44, 0.0444444
SHOPPING, TYPE_OF_PLACE, 2, acc, 45, 0.0000000
SHOPPING, TYPE_OF_PLACE, 2, precision, 0, -
SHOPPING, TYPE_OF_PLACE, 2, recall, 45, 0.0000000
SHOPPING, TYPE_OF_PLACE, 2, f1, 45, -
SHOPPING, PLACE, 2, acc, 28, 0.0000000
SHOPPING, PLACE, 2, precision, 0, -
SHOPPING, PLACE, 2, recall, 28, 0.0000000
SHOPPING, PLACE, 2, f1, 28, -
SHOPPING, NEIGHBOURHOOD, 2, acc, 29, 0.0000000
SHOPPING, NEIGHBOURHOOD, 2, precision, 0, -
SHOPPING, NEIGHBOURHOOD, 2, recall, 30, 0.0000000
SHOPPING, NEIGHBOURHOOD, 2, f1, 30, -
SHOPPING, TIME, 2, acc, 0, -
SHOPPING, TIME, 2, precision, 0, -
SHOPPING, TIME, 2, recall, 0, -
SHOPPING, TIME, 2, f1, 0, -
SHOPPING, all, 2, acc, 65, 0.0769231
SHOPPING, all, 2, precision, 8, 0.1250000
SHOPPING, all, 2, recall, 140, 0.0071429
SHOPPING, all, 2, f1, 147, 0.0135135
TRANSPORTATION, INFO, 2, acc, 39, 0.0000000
TRANSPORTATION, INFO, 2, precision, 5, 0.0000000
TRANSPORTATION, INFO, 2, recall, 37, 0.0000000
TRANSPORTATION, INFO, 2, f1, 42, -
TRANSPORTATION, FROM, 2, acc, 51, 0.0000000
TRANSPORTATION, FROM, 2, precision, 0, -
TRANSPORTATION, FROM, 2, recall, 53, 0.0000000
TRANSPORTATION, FROM, 2, f1, 53, -
TRANSPORTATION, TO, 2, acc, 56, 0.0000000
TRANSPORTATION, TO, 2, precision, 0, -
TRANSPORTATION, TO, 2, recall, 61, 0.0000000
TRANSPORTATION, TO, 2, f1, 61, -
TRANSPORTATION, STATION, 2, acc, 4, 0.0000000
TRANSPORTATION, STATION, 2, precision, 0, -
TRANSPORTATION, STATION, 2, recall, 4, 0.0000000
TRANSPORTATION, STATION, 2, f1, 4, -
TRANSPORTATION, LINE, 2, acc, 10, 0.0000000
TRANSPORTATION, LINE, 2, precision, 0, -
TRANSPORTATION, LINE, 2, recall, 10, 0.0000000
TRANSPORTATION, LINE, 2, f1, 10, -
TRANSPORTATION, TYPE, 2, acc, 77, 0.0000000
TRANSPORTATION, TYPE, 2, precision, 0, -
TRANSPORTATION, TYPE, 2, recall, 80, 0.0000000
TRANSPORTATION, TYPE, 2, f1, 80, -
TRANSPORTATION, TICKET, 2, acc, 5, 0.0000000
TRANSPORTATION, TICKET, 2, precision, 0, -
TRANSPORTATION, TICKET, 2, recall, 5, 0.0000000
TRANSPORTATION, TICKET, 2, f1, 5, -
TRANSPORTATION, all, 2, acc, 84, 0.0000000
TRANSPORTATION, all, 2, precision, 5, 0.0000000
TRANSPORTATION, all, 2, recall, 250, 0.0000000
TRANSPORTATION, all, 2, f1, 255, -
ACCOMMODATION, INFO, 2, acc, 63, 0.0000000
ACCOMMODATION, INFO, 2, precision, 6, 0.0000000
ACCOMMODATION, INFO, 2, recall, 71, 0.0000000
ACCOMMODATION, INFO, 2, f1, 77, -
ACCOMMODATION, TYPE_OF_PLACE, 2, acc, 26, 0.0000000
ACCOMMODATION, TYPE_OF_PLACE, 2, precision, 0, -
ACCOMMODATION, TYPE_OF_PLACE, 2, recall, 26, 0.0000000
ACCOMMODATION, TYPE_OF_PLACE, 2, f1, 26, -
ACCOMMODATION, PLACE, 2, acc, 56, 0.0000000
ACCOMMODATION, PLACE, 2, precision, 0, -
ACCOMMODATION, PLACE, 2, recall, 56, 0.0000000
ACCOMMODATION, PLACE, 2, f1, 56, -
ACCOMMODATION, NEIGHBOURHOOD, 2, acc, 26, 0.0000000
ACCOMMODATION, NEIGHBOURHOOD, 2, precision, 0, -
ACCOMMODATION, NEIGHBOURHOOD, 2, recall, 28, 0.0000000
ACCOMMODATION, NEIGHBOURHOOD, 2, f1, 28, -
ACCOMMODATION, all, 2, acc, 85, 0.0117647
ACCOMMODATION, all, 2, precision, 6, 0.0000000
ACCOMMODATION, all, 2, recall, 181, 0.0000000
ACCOMMODATION, all, 2, f1, 187, -
basic,total_wall_time,,,,502.847893953
basic,sessions,,,,6
basic,utterances,,,,4812
basic,wall_time_per_utterance,,,,0.104498731079
basic,dataset,,,,dstc4_dev
